<?xml version="1.0" encoding="UTF-8"?>
<!DOCTYPE svg PUBLIC "-//W3C//DTD SVG 1.1//EN" "http://www.w3.org/Graphics/SVG/1.1/DTD/svg11.dtd">
<!-- Creator: CorelDRAW X6 -->
<svg xmlns="http://www.w3.org/2000/svg" xml:space="preserve" width="1.45833in" height="0.51389in" version="1.1" style="shape-rendering:geometricPrecision; text-rendering:geometricPrecision; image-rendering:optimizeQuality; fill-rule:evenodd; clip-rule:evenodd"
viewBox="0 0 1458 514"
 xmlns:xlink="http://www.w3.org/1999/xlink">
 <defs>
  <style type="text/css">
   <![CDATA[
    .fil0 {fill:#2C3D73;fill-rule:nonzero}
   ]]>
  </style>
 </defs>
 <g id="Layer_x0020_1">
  <metadata id="CorelCorpID_0Corel-Layer"/>
  <path class="fil0" d="M35 381c30,52 77,93 132,115 -35,-22 -69,-48 -99,-79 -12,-11 -22,-23 -33,-35l0 0z"/>
  <path class="fil0" d="M7 308c3,11 6,22 9,32 18,24 36,47 58,69 41,40 87,73 136,99 11,3 23,4 34,5 -59,-26 -114,-63 -162,-111 -29,-29 -54,-61 -75,-94l0 0z"/>
  <path class="fil0" d="M0 256c0,8 1,17 2,24 23,41 52,80 87,115 54,54 116,94 183,119 8,0 17,-1 25,-2 -73,-24 -142,-66 -201,-125 -40,-40 -71,-84 -95,-131l0 0z"/>
  <path class="fil0" d="M3 214c-1,7 -2,13 -2,20 24,53 58,103 102,147 62,62 137,104 216,127 7,-1 13,-3 20,-5 -83,-20 -164,-64 -229,-130 -47,-47 -83,-102 -107,-159l0 0z"/>
  <path class="fil0" d="M10 177c-2,6 -3,12 -4,18 24,62 61,121 111,172 68,68 152,112 240,131 5,-2 11,-4 17,-7 -92,-17 -179,-61 -250,-131 -53,-54 -91,-115 -114,-183l0 0z"/>
  <path class="fil0" d="M22 146c-3,5 -4,10 -7,15 22,71 60,136 115,191 73,73 164,116 259,131 5,-3 9,-6 14,-8 -97,-12 -191,-55 -265,-129 -57,-58 -96,-126 -116,-200l0 0z"/>
  <path class="fil0" d="M113 286c-15,-3 -27,-17 -27,-34 0,-2 0,-3 0,-5 -24,-40 -40,-84 -51,-129 -3,4 -5,8 -7,13 19,76 57,147 116,206 76,76 173,119 271,128 4,-3 8,-6 13,-9 -101,-7 -200,-49 -276,-126 -14,-14 -28,-30 -40,-46l0 0z"/>
  <path class="fil0" d="M98 227c-23,-42 -39,-87 -46,-133 -3,4 -5,8 -8,12 8,46 24,89 48,130 2,-3 4,-6 7,-8l0 0z"/>
  <path class="fil0" d="M136 282c-3,2 -7,3 -10,3 10,13 22,26 34,39 78,78 179,119 281,123 3,-3 7,-7 11,-10 -104,-2 -206,-42 -284,-121 -11,-11 -21,-23 -31,-35l0 0z"/>
  <path class="fil0" d="M410 425c16,2 33,3 50,3 3,-3 5,-6 8,-8 -15,4 -32,6 -49,6 -3,0 -6,0 -8,0l0 0z"/>
  <path class="fil0" d="M181 302c-11,-11 -22,-23 -31,-35 -2,3 -3,6 -6,8 9,12 19,23 29,34 55,54 121,89 190,106 -21,-7 -40,-16 -56,-29 -46,-19 -89,-48 -126,-85l0 0z"/>
  <path class="fil0" d="M117 219c-26,-46 -42,-96 -48,-147 -3,3 -6,7 -9,10 7,49 23,95 46,139 3,-2 7,-3 11,-3l0 0z"/>
  <path class="fil0" d="M277 358c-3,-4 -7,-8 -10,-13 -25,-15 -50,-35 -72,-56 -66,-65 -102,-148 -108,-234 -3,3 -7,6 -10,9 6,55 23,108 51,157 14,4 25,17 25,32 0,2 0,3 0,5 10,13 21,26 34,39 29,29 61,52 95,70 0,-1 0,-1 0,-1 -2,-2 -3,-4 -6,-7l0 0z"/>
  <path class="fil0" d="M209 274c-65,-65 -99,-149 -102,-235 -3,3 -7,5 -10,8 4,86 40,170 105,235 17,17 35,32 55,45 -3,-5 -5,-11 -8,-18 -13,-10 -27,-22 -40,-35l0 0z"/>
  <path class="fil0" d="M349 339c19,15 45,25 72,25 14,0 28,-3 40,-7 -38,0 -75,-6 -111,-19l0 0z"/>
  <path class="fil0" d="M223 259c-65,-64 -97,-149 -97,-234 -3,2 -7,4 -10,6 2,86 35,171 100,236 9,9 19,18 29,26 -2,-6 -3,-11 -3,-16 -6,-6 -13,-11 -19,-18l0 0z"/>
  <path class="fil0" d="M240 248c-1,-1 -2,-2 -3,-2 -64,-64 -94,-149 -91,-233 -3,2 -7,4 -10,6 -2,84 30,170 94,233 3,3 6,7 9,10 0,-5 0,-10 0,-14l0 0z"/>
  <path class="fil0" d="M323 306c3,6 5,11 8,15 48,21 100,29 151,25 6,-3 11,-8 16,-12 -59,8 -121,-2 -175,-29l0 0z"/>
  <path class="fil0" d="M316 280c1,5 2,9 3,14 59,30 126,40 190,29 1,-1 1,-1 2,-2 3,-3 5,-7 7,-11 -67,14 -140,4 -201,-30l0 0z"/>
  <path class="fil0" d="M243 222c-56,-62 -81,-141 -75,-218 -3,2 -8,3 -11,5 -4,81 24,163 84,227 0,-2 0,-3 1,-5 0,-3 1,-6 1,-8l0 0z"/>
  <path class="fil0" d="M189 -3c-4,1 -8,2 -11,3 -7,74 16,150 67,210 2,-3 3,-8 4,-12 -48,-57 -68,-131 -61,-201l0 0z"/>
  <path class="fil0" d="M338 269c-8,-4 -16,-8 -24,-13 0,4 0,8 0,13 64,37 138,48 208,31 2,-3 3,-7 3,-10 0,-1 0,-1 0,-1 -55,14 -114,11 -167,-10l-21 0 0 -9z"/>
  <path class="fil0" d="M314 244c8,5 16,9 24,13l0 -11c-8,-4 -15,-9 -23,-14 -1,4 -1,8 -1,12l0 0z"/>
  <path class="fil0" d="M390 278c45,12 93,12 137,-1 0,-3 0,-7 1,-11 -2,1 -3,1 -5,2 0,3 -1,7 -1,10l-132 0 0 0z"/>
  <path class="fil0" d="M209 -8c-3,0 -7,1 -10,2 -8,68 9,138 54,195 2,-3 3,-8 5,-11 -41,-54 -57,-121 -49,-185l0 0z"/>
  <path class="fil0" d="M270 159c-36,-51 -49,-112 -40,-171 -3,1 -7,1 -11,2 -9,62 6,126 44,179l0 0c3,-3 4,-6 7,-9l0 0z"/>
  <path class="fil0" d="M528 250c0,-1 0,-3 0,-4 -3,1 -4,2 -7,3 0,3 1,6 1,9 2,-1 4,-1 6,-2 0,-3 0,-4 0,-6l0 0z"/>
  <path class="fil0" d="M317 221c7,5 14,10 21,14l0 -11 3 0c-8,-4 -14,-8 -21,-13 -1,3 -2,7 -3,10l0 0z"/>
  <path class="fil0" d="M528 236c0,-3 -1,-7 -1,-10 -3,1 -6,2 -9,3 1,3 2,7 2,10 3,-1 6,-2 8,-3l0 0z"/>
  <path class="fil0" d="M250 -14c-3,0 -7,1 -9,1 -10,56 2,115 35,164 3,-3 4,-6 7,-8 -31,-46 -41,-104 -31,-157l-2 0z"/>
  <path class="fil0" d="M388 225c-21,-8 -41,-19 -60,-33 -2,3 -3,6 -5,9 12,9 24,17 38,24l27 0 0 0z"/>
  <path class="fil0" d="M261 -14c-11,51 -1,104 29,150 3,-3 5,-5 8,-7 -28,-43 -36,-95 -26,-143l-10 0z"/>
  <path class="fil0" d="M526 216c0,-3 -1,-8 -1,-11 -4,2 -8,3 -12,4 2,3 3,7 3,10 3,-2 7,-3 9,-3l0 0z"/>
  <path class="fil0" d="M445 225c0,-3 0,-6 0,-8 -37,-3 -73,-16 -105,-40 -1,1 -2,2 -3,3 -2,2 -3,3 -5,4 29,23 61,36 94,41l18 0 0 0z"/>
  <path class="fil0" d="M292 -13c-3,0 -7,0 -10,-1l0 0c-10,46 -2,96 24,137 3,-2 5,-3 8,-5 -25,-40 -33,-87 -23,-131l0 0z"/>
  <path class="fil0" d="M522 195c0,-3 -1,-7 -2,-10 -5,2 -9,3 -14,4 2,3 3,7 4,10 4,-2 8,-3 12,-4l0 0z"/>
  <path class="fil0" d="M438 195c-28,-3 -54,-13 -78,-29 -4,2 -8,3 -11,5 28,21 60,33 93,35 -1,-3 -3,-8 -4,-11l0 0z"/>
  <path class="fil0" d="M517 175c-1,-3 -2,-6 -3,-9 -6,2 -12,4 -18,6 2,3 3,6 5,9 5,-2 10,-3 15,-6l0 0z"/>
  <path class="fil0" d="M413 170c-4,-2 -9,-3 -13,-5 -8,-3 -18,-3 -26,-2 18,11 38,18 57,21 -5,-6 -11,-11 -18,-14l0 0z"/>
  <path class="fil0" d="M312 -9c-3,-1 -7,-2 -10,-2 -10,42 -3,88 22,126 3,-2 6,-3 9,-4 -24,-35 -31,-79 -21,-120l0 0z"/>
  <path class="fil0" d="M512 157c-2,-3 -3,-7 -4,-10 -7,3 -14,6 -22,7 3,3 4,7 7,9 7,-2 13,-3 19,-6l0 0z"/>
  <path class="fil0" d="M331 -5c-3,-1 -7,-2 -10,-3 -9,39 -3,81 22,115 3,-2 8,-2 11,-3 -24,-32 -32,-73 -23,-110l0 0z"/>
  <path class="fil0" d="M379 103c-28,-28 -37,-67 -29,-102 -3,-1 -7,-3 -10,-3 -8,36 0,76 25,106 4,0 8,-1 13,-1l0 0z"/>
  <path class="fil0" d="M479 145l0 0c8,-1 17,-3 24,-7 -1,-3 -3,-7 -4,-9 -9,3 -19,6 -30,7 3,3 7,6 9,9l0 0z"/>
  <path class="fil0" d="M394 90c-23,-22 -30,-53 -24,-82 -3,-2 -7,-3 -10,-4 -8,32 2,68 27,94 3,2 4,4 7,6 10,1 20,3 30,6 -11,-4 -21,-11 -29,-19l0 0z"/>
  <path class="fil0" d="M494 120c-2,-3 -3,-7 -5,-9 -19,7 -38,7 -56,2 9,3 18,8 26,14 12,0 24,-3 35,-7l0 0z"/>
  <path class="fil0" d="M484 103c-3,-3 -4,-6 -7,-9 -24,7 -50,1 -68,-18 -16,-16 -23,-38 -20,-59 -3,-2 -7,-3 -10,-4 -4,24 3,51 23,71 22,22 54,29 83,19l0 0z"/>
  <path class="fil0" d="M470 85c-3,-3 -5,-6 -8,-9 -14,2 -29,-3 -40,-14 -9,-9 -14,-21 -15,-33 -3,-2 -7,-4 -10,-6 -1,16 5,34 18,46 15,15 35,20 55,16l0 0z"/>
  <path class="fil0" d="M454 66c-11,-11 -23,-21 -35,-30 2,7 5,13 11,19 7,7 15,11 24,12l0 0z"/>
  <path class="fil0" d="M970 306c4,24 13,41 35,48 26,8 59,6 75,-15 6,-8 7,-19 4,-28 -4,-14 -17,-18 -42,-23 -22,-5 -76,-11 -104,-33 -23,-18 -35,-51 -23,-88 14,-40 54,-57 84,-62 56,-8 102,13 121,33 15,16 25,41 24,66l-62 0c-1,-8 -2,-15 -5,-22 -8,-17 -25,-27 -45,-27 -22,-2 -45,4 -54,23 -3,7 -3,19 3,25 13,15 40,16 62,20 39,7 81,13 99,46 21,37 9,79 -4,96 -9,12 -20,23 -35,31 -24,13 -66,19 -106,12 -37,-6 -62,-24 -77,-47 -11,-18 -18,-33 -18,-55l66 0 0 0z"/>
  <path class="fil0" d="M687 225l106 0c2,-24 -17,-51 -41,-59 -23,-7 -46,-3 -66,13 -18,16 -24,50 -24,71 1,40 8,67 31,84 15,11 50,25 80,3 13,-10 19,-24 22,-34l75 0c-2,24 -24,61 -47,78 -40,29 -94,35 -136,19 -90,-34 -105,-120 -98,-171 3,-21 11,-43 22,-62 21,-34 51,-57 94,-64 46,-7 92,8 121,40 17,19 33,51 39,78 3,18 7,36 5,56l-184 0 0 -53z"/>
  <path class="fil0" d="M1374 319c-8,20 -29,32 -54,35l0 0c-5,1 -11,2 -17,1 -17,0 -31,-8 -37,-21 -7,-13 -3,-25 2,-33 10,-18 28,-21 52,-26l0 0c8,-1 16,-3 25,-5 19,-4 23,-8 32,-14 0,7 1,55 -3,64l0 0zm85 83l0 -1c-10,-22 -9,-53 -9,-71l0 0 0 -91c-1,-24 -1,-47 -6,-69 -5,-22 -24,-58 -87,-66 -12,-1 -24,-1 -37,-1l0 0 0 0c-21,1 -43,4 -61,11 -37,15 -56,51 -56,89l67 0c-2,-19 13,-37 26,-42 6,-3 14,-4 23,-4 17,-1 34,3 45,14 8,8 10,18 8,29 -4,18 -24,24 -53,28l0 0c-10,2 -22,3 -34,4 -35,4 -86,22 -98,73 -4,20 -1,57 30,82 21,16 51,24 73,23 10,0 20,-1 29,-3l0 0c24,-5 42,-16 60,-30 1,4 5,20 8,24l70 0z"/>
 </g>
</svg>
